"File: horn.c        Assembler  Version HGASM0202      Page 1


   1  0000              ; Generated by holtek-gcc v3.19, Fri Oct 14 17:16:20 2022
   2  0000              ; 
   3  0000              ; Configuration:
   4  0000              ;       with long instruction
   5  0000              ;       Single ROM, Multi-RAM
   6  0000              ;       bits_per_rom_unit:16
   7  0000              ;       with mp1
   8  0000              ;       with tbhp, address(0x9)
   9  0000              ;          Use tabrd-const
  10  0000              ;       
  11  0000              ; SFR address of long-instruction arch:
  12  0000              ;    mp0 = -1,1,0
  13  0000              ;    mp1 = 4,3,2
  14  0000              ;    mp2 = 14,13,12
  15  0000              ;    tbp = 9,7,8
  16  0000              ;    acc = 5
  17  0000              ;    pcl = 6
  18  0000              ;    status = 10
  19  0000              ;    bp = 11
  20  0000              ;    intc = 72
  21  0000              ;       
  22  0000              ;       
  23  0000              ; use 'tabrdc' instead of 'tabrd'
  24  0000              ;       
  25  0000              
  26  0000              #pragma translator "holtek-gcc 4.6.4" "3.19" "build 20130711"
  27  0000              ; Rebuild 718
  28  0000              
  29  0000              ir equ [2]
  30  0000              mp equ [3]
  31  0000              sbp equ [4]
  32  0000              acc equ [5]
  33  0000              bp equ [11]
  34  0000              tblp equ [7]
  35  0000              tbhp equ [9]
  36  0000              status equ [10]
  37  0000              c equ [10].0
  38  0000              ac equ [10].1
  39  0000              z equ [10].2
  40  0000              ov equ [10].3
  41  0000              cz equ [10].6
  42  0000              sc equ [10].7
  43  0000              intc equ [72]
  44  0000              
  45  0000              extern ra:byte
  46  0000              extern rb:byte
  47  0000              extern rc:byte
  48  0000              extern rd:byte
  49  0000              extern re:byte
  50  0000              extern rf:byte
  51  0000              extern rg:byte
  52  0000              extern rh:byte
  53  0000              extern _Crom2Prom:near
  54  0000              extern _Crom2PromNext:near
  55  0000              
  56  0000              RAMBANK 0 @BITDATASEC, @BITDATASEC1
  57  0000              @HCCINIT	.section 'data'
  58  0000              @HCCINIT0	.section 'data'
  59  0000              @BITDATASEC	 .section 'data'
"File: horn.ASM      Assembler  Version HGASM0202      Page 2

  60  0000              @BITDATASEC1	 .section 'data'
  61  0000              
  62  0000              #pragma debug scope 1 1
  63  0000              	extern __DELAY3:near
  64  0000              	extern __DELAYX3:near
  65  0000              	extern __DELAYX6:near
  66  0000              	extern __DELAYY5:near
  67  0000              	extern __DELAYY3:near
  68  0000              	extern _builtin_holtek_delay_2:byte
  69  0000              ___pas1 equ [77]
  70  0000              ___pa equ [20]
  71  0000              ___pac equ [21]
  72  0000              ___ptmc0 equ [82]
  73  0000              public _Horn_Init
  74  0000              #pragma debug scope 2 1

  25  0000              #line 25 "D:\Porject\Stowe\Code\Debug\revew\code\C\horn.c"
  25  0000              _Horn_Init .section 'code'
  25  0000              _Horn_Init proc
  27  0000              #line 27 "D:\Porject\Stowe\Code\Debug\revew\code\C\horn.c"
  27  0000  36CD        	clr [77].5
  28  0001              #line 28 "D:\Porject\Stowe\Code\Debug\revew\code\C\horn.c"
  28  0001  364D        	clr [77].4
  29  0002              #line 29 "D:\Porject\Stowe\Code\Debug\revew\code\C\horn.c"
  29  0002  3314        	set [20].6
  30  0003              #line 30 "D:\Porject\Stowe\Code\Debug\revew\code\C\horn.c"
  30  0003  3715        	clr [21].6
  31  0004              #line 31 "D:\Porject\Stowe\Code\Debug\revew\code\C\horn.c"
  31  0004  3594        	clr [20].3
  37  0005              #line 37 "D:\Porject\Stowe\Code\Debug\revew\code\C\horn.c"
  37  0005  35D2        	clr [82].3
  37  0006  0003        	ret
  37  0007              _Horn_Init endp
  37  0007              #line 37 "D:\Porject\Stowe\Code\Debug\revew\code\C\horn.c"
  37  0007              #pragma debug scope 1 1
  37  0007              ___wdtc equ [61]
  37  0007              public _Horn_T3_Pattern
  37  0007              #pragma debug scope 3 1
  57  0007              #line 57 "D:\Porject\Stowe\Code\Debug\revew\code\C\horn.c"
  57  0000              _Horn_T3_Pattern .section 'code'
  57  0000              _Horn_T3_Pattern proc
  62  0000              #line 62 "D:\Porject\Stowe\Code\Debug\revew\code\C\horn.c"
  62  0000  3800     R  	snz _flag_horn_alarm_bits[0].0
  62  0001  2800     R  	jmp _L2
  64  0002              #line 64 "D:\Porject\Stowe\Code\Debug\revew\code\C\horn.c"
  64  0002  3C00     R  	sz _flag_horn_alarm_bits[0].1
  64  0003  2800     R  	jmp _L4
  66  0004              #line 66 "D:\Porject\Stowe\Code\Debug\revew\code\C\horn.c"
  66  0004  0F03        	mov a,3
  66  0005  0080     R  	mov ___horn_pulse_cnt_1858[0],a
  67  0006              #line 67 "D:\Porject\Stowe\Code\Debug\revew\code\C\horn.c"
  67  0006  0F5A        	mov a,90
  67  0007  0080     E  	mov _photo_sampling_cnt[0],a
  68  0008              #line 68 "D:\Porject\Stowe\Code\Debug\revew\code\C\horn.c"
  68  0008  3000     R  	set _flag_horn_alarm_bits[0].1
  68  0009  2800     R  	jmp _L22
  68  000A              _L4:
  79  000A              #line 79 "D:\Porject\Stowe\Code\Debug\revew\code\C\horn.c"
  79  000A  1500     R  	deca ___horn_on_off_delay_1857[0]
  79  000B  0080     E  	mov ra,a
"File: horn.c        Assembler  Version HGASM0202      Page 3

  79  000C  0700     E  	mov a,ra
  79  000D  0080     R  	mov ___horn_on_off_delay_1857[0],a
  80  000E              #line 80 "D:\Porject\Stowe\Code\Debug\revew\code\C\horn.c"
  80  000E  1080     E  	sz ra
  80  000F  2800     R  	jmp _L2
  82  0010              #line 82 "D:\Porject\Stowe\Code\Debug\revew\code\C\horn.c"
  82  0010  3C00     R  	sz _flag_horn_alarm_bits[0].2
  82  0011  2800     R  	jmp _L7
  82  0012              _L22:
  84  0012              #line 84 "D:\Porject\Stowe\Code\Debug\revew\code\C\horn.c"
  84  0012  3000     R  	set _flag_horn_alarm_bits[0].2
  85  0013              #line 85 "D:\Porject\Stowe\Code\Debug\revew\code\C\horn.c"
  85  0013  0F3D        	mov a,61
  85  0014  0080     R  	mov ___horn_on_off_delay_1857[0],a
  86  0015              #line 86 "D:\Porject\Stowe\Code\Debug\revew\code\C\horn.c"
  86  0015  3C00     E  	sz _task_priority[1].3
  86  0016  2800     R  	jmp _L8
  86  0017  3C00     E  	sz _task_priority[0].1
  86  0018  2800     R  	jmp _L2
  86  0019              _L8:
  88  0019              #line 88 "D:\Porject\Stowe\Code\Debug\revew\code\C\horn.c"
  88  0019  3694        	clr [20].5
  89  001A              #line 89 "D:\Porject\Stowe\Code\Debug\revew\code\C\horn.c"
  89  001A  3714        	clr [20].6
  89  001B  2800     R  	jmp _L2
  89  001C              _L7:
  94  001C              #line 94 "D:\Porject\Stowe\Code\Debug\revew\code\C\horn.c"
  94  001C  3400     R  	clr _flag_horn_alarm_bits[0].2
  95  001D              #line 95 "D:\Porject\Stowe\Code\Debug\revew\code\C\horn.c"
  95  001D  0F3D        	mov a,61
  95  001E  0080     R  	mov ___horn_on_off_delay_1857[0],a
  96  001F              #line 96 "D:\Porject\Stowe\Code\Debug\revew\code\C\horn.c"
  96  001F  3294        	set [20].5
  97  0020              #line 97 "D:\Porject\Stowe\Code\Debug\revew\code\C\horn.c"
  97  0020  3314        	set [20].6
  98  0021              #line 98 "D:\Porject\Stowe\Code\Debug\revew\code\C\horn.c"
  98  0021  1500     R  	deca ___horn_pulse_cnt_1858[0]
  98  0022  0080     E  	mov ra,a
  98  0023  0700     E  	mov a,ra
  98  0024  0080     R  	mov ___horn_pulse_cnt_1858[0],a
  99  0025              #line 99 "D:\Porject\Stowe\Code\Debug\revew\code\C\horn.c"
  99  0025  1080     E  	sz ra
  99  0026  2800     R  	jmp _L2
 101  0027              #line 101 "D:\Porject\Stowe\Code\Debug\revew\code\C\horn.c"
 101  0027  0F03        	mov a,3
 101  0028  0080     R  	mov ___horn_pulse_cnt_1858[0],a
 102  0029              #line 102 "D:\Porject\Stowe\Code\Debug\revew\code\C\horn.c"
 102  0029  0FB7        	mov a,183
 102  002A  0080     R  	mov ___horn_on_off_delay_1857[0],a
 104  002B              #line 104 "D:\Porject\Stowe\Code\Debug\revew\code\C\horn.c"
 104  002B  3800     R  	snz _flag_horn_alarm_bits[0].3
 104  002C  2800     R  	jmp _L9
 106  002D              #line 106 "D:\Porject\Stowe\Code\Debug\revew\code\C\horn.c"
 106  002D  1F00     R  	clr _flag_horn_alarm_bits[0]
 106  002E              _L9:
 110  002E              #line 110 "D:\Porject\Stowe\Code\Debug\revew\code\C\horn.c"
 110  002E  3800     E  	snz _task_priority[1].3
 110  002F  2800     R  	jmp _L2
 112  0030              #line 112 "D:\Porject\Stowe\Code\Debug\revew\code\C\horn.c"
 112  0030  1400     R  	inca ___ptt_alarm_reset_cnt_1859[0]
"File: horn.c        Assembler  Version HGASM0202      Page 4

 112  0031  0080     E  	mov ra,a
 112  0032  0700     E  	mov a,ra
 112  0033  0080     R  	mov ___ptt_alarm_reset_cnt_1859[0],a
 113  0034              #line 113 "D:\Porject\Stowe\Code\Debug\revew\code\C\horn.c"
 113  0034  0F01        	mov a,1
 113  0035  0200     E  	sub a,ra
 113  0036  3C0A        	sz c
 113  0037  2800     R  	jmp _L2
 115  0038              #line 115 "D:\Porject\Stowe\Code\Debug\revew\code\C\horn.c"
 115  0038  3400     E  	clr _task_priority[1].3
 116  0039              #line 116 "D:\Porject\Stowe\Code\Debug\revew\code\C\horn.c"
 116  0039  0F20        	mov a,32
 116  003A  0080     E  	mov _Delay_Milliseconds_2[0],a
 116  003B  0F03        	mov a,3
 116  003C  0080     E  	mov _Delay_Milliseconds_2[1],a
 116  003D  2000     E  	call _Delay_Milliseconds
 117  003E              #line 117 "D:\Porject\Stowe\Code\Debug\revew\code\C\horn.c"
 117  003E  1F3D        	clr [61]
 117  003F              _L10:
 117  003F  2800     R  	jmp _L10
 117  0040              _L2:
 117  0040  0003        	ret
 117  0041              _Horn_T3_Pattern endp
 117  0041              #line 117 "D:\Porject\Stowe\Code\Debug\revew\code\C\horn.c"
 117  0041              #pragma debug scope 1 1
 117  0000              @HCCINIT	.section 'data'
  60  0000              #line 60 "D:\Porject\Stowe\Code\Debug\revew\code\C\horn.c"
  60  0000              @HCCINIT___ptt_alarm_reset_cnt_1859 .section 'data'
  60  0000              ___ptt_alarm_reset_cnt_1859 label byte
  60  0000              #pragma debug variable 8 3 ___ptt_alarm_reset_cnt_1859 "ptt_alarm_reset_cnt"
  60  0000              	db 0
  60  0000              @ROMDATA_BASE .section inpage 'code'
  60  0000              	db 0
  60  0001              @HCCINIT___ptt_alarm_reset_cnt_1859 .section 'data'
  58  0001              #line 58 "D:\Porject\Stowe\Code\Debug\revew\code\C\horn.c"
  58  0000              @HCCINIT___horn_on_off_delay_1857 .section 'data'
  58  0000              ___horn_on_off_delay_1857 label byte
  58  0000              #pragma debug variable 8 3 ___horn_on_off_delay_1857 "horn_on_off_delay"
  58  0000              	db 0
  58  0001              @ROMDATA_BASE .section inpage 'code'
  58  0001              	db 0
  58  0001              @HCCINIT___horn_on_off_delay_1857 .section 'data'
  59  0001              #line 59 "D:\Porject\Stowe\Code\Debug\revew\code\C\horn.c"
  59  0000              @HCCINIT___horn_pulse_cnt_1858 .section 'data'
  59  0000              ___horn_pulse_cnt_1858 label byte
  59  0000              #pragma debug variable 8 3 ___horn_pulse_cnt_1858 "horn_pulse_cnt"
  59  0000              	db 0
  59  0001              @ROMDATA_BASE .section inpage 'code'
  59  0001              	db 0
  59  0001              @HCCINIT___horn_pulse_cnt_1858 .section 'data'
  59  0001              public _flag_horn_alarm_bits
  13  0001              #line 13 "D:\Porject\Stowe\Code\Debug\revew\code\C\horn.c"
  13  0000              @HCCINIT_flag_horn_alarm_bits .section 'data'
  13  0000              _flag_horn_alarm_bits label byte
  13  0000              #pragma debug struct_end
  13  0000              #pragma debug struct_end
  13  0000              #pragma debug union_end
  13  0000              #pragma debug union_end
  13  0000              #pragma debug variable 43 1 _flag_horn_alarm_bits "flag_horn_alarm_bits"
  13  0000              	db 0
"File: horn.c        Assembler  Version HGASM0202      Page 5

  13  0002              @ROMDATA_BASE .section inpage 'code'
  13  0002              	db 0
  13  0001              @HCCINIT_flag_horn_alarm_bits .section 'data'
  13  0001              #pragma debug struct_end
  13  0001              #pragma debug struct_end
  13  0001              #pragma debug union_end
  13  0001              #pragma debug union_end
  13  0001              #pragma debug variable 45 1 ___pa "__pa" 1
  13  0001              #pragma debug struct_end
  13  0001              #pragma debug struct_end
  13  0001              #pragma debug union_end
  13  0001              #pragma debug union_end
  13  0001              #pragma debug variable 47 1 ___pac "__pac" 1
  13  0001              #pragma debug struct_end
  13  0001              #pragma debug struct_end
  13  0001              #pragma debug union_end
  13  0001              #pragma debug union_end
  13  0001              #pragma debug variable 49 1 ___wdtc "__wdtc" 1
  13  0001              #pragma debug struct_end
  13  0001              #pragma debug struct_end
  13  0001              #pragma debug union_end
  13  0001              #pragma debug union_end
  13  0001              #pragma debug variable 51 1 ___pas1 "__pas1" 1
  13  0001              #pragma debug struct_end
  13  0001              #pragma debug struct_end
  13  0001              #pragma debug union_end
  13  0001              #pragma debug union_end
  13  0001              #pragma debug variable 53 1 ___ptmc0 "__ptmc0" 1
  13  0001              
  13  0001              ; output external variables
  13  0001              extern _task_priority:byte
  13  0001              extern _photo_sampling_cnt:byte
  13  0001              extern _Delay_Milliseconds_2:byte
  13  0001              extern _Delay_Milliseconds:near
  13  0001              
  13  0001              ; 
  13  0001              ; Generated by holtek-gcc v3.19, Fri Oct 14 17:16:20 2022
  13  0001              ; Rebuild 718
  13  0001              ; end of file


        0 Errors, 0